03/14/22 17:42

cvxpy_intro.py has not been modified yet

-------------------------------------------------------------------------------

03/17/22 09:46

Problem 1 (5 points):
Score += 5

Problem 2 (5 points):
Score += 5

Problem 3 (5 points):
Score += 5

Problem 4 (5 points):
Score += 5

Problem 5 (10 points):
Score += 10

Problem 6 (15 points):
Score += 15

Code Quality (5 points):
Make sure you include comments! None in problem 3
Score += 0

Total score: 45/50 = 90.0%

Great job!

-------------------------------------------------------------------------------

